{
  "project_info": {
    "project_number": "148270189806",
    "project_id": "ledger-live-12a1c",
    "storage_bucket": "ledger-live-12a1c.appspot.com"
  },
  "client": [
    {
      "client_info": {
        "mobilesdk_app_id": "1:148270189806:android:3966cda8e9392a469677ff",
        "android_client_info": {
          "package_name": "com.ledger.live"
        }
      },
      "oauth_client": [
        {
          "client_id": "148270189806-hjcg6kgus98c0at53s7jscfc99ngcjjg.apps.googleusercontent.com",
          "client_type": 3
        }
      ],
      "api_key": [
        {
          "current_key": "AIzaSyDFTyzJvgWMdh5Zw5Sy3eCEAtG3VXnHIoc"
        }
      ],
      "services": {
        "appinvite_service": {
          "other_platform_oauth_client": [
            {
              "client_id": "148270189806-hjcg6kgus98c0at53s7jscfc99ngcjjg.apps.googleusercontent.com",
              "client_type": 3
            }
          ]
        }
      }
    }
  ],
  "configuration_version": "1"
}
